Hour,InteriorLights:Electricity,InteriorEquipment:Electricity,Fans:Electricity,ExteriorLights:Electricity,Cooling:Electricity,Pumps:Electricity,Heating,WaterSystems
0,0.2750026812,1.6500160871999998,0.0,2.303,0.0,4.038461538461539e-12,0.0,0.02
1,0.2750026812,1.6500160871999998,0.0,2.303,0.0,4.038461538461539e-12,0.0,0.45307708411718045
2,0.2750026812,1.6500160871999998,0.0,2.303,0.0,4.038461538461539e-12,0.0,0.4530747675790638
3,0.2750026812,1.6500160871999998,0.0,2.303,0.0,4.038461538461539e-12,0.0,0.02
4,0.2750026812,1.6500160871999998,0.0,2.303,0.0,4.038461538461539e-12,0.0,0.45308083786956543
5,0.5500053624000001,2.2000214496000003,2.006347065020045,2.303,0.11374977418036882,4.038461538461539e-12,0.15236292367349255,0.45308950761614825
6,0.5500053624000001,2.2000214496000003,2.006347065020045,0.0,0.02946734755305354,4.038461538461539e-12,1.577435486228924,0.02
7,1.6500160871999998,2.750026812000001,2.006347065020044,0.0,0.08130587017708049,4.038461538461539e-12,0.374256770509751,0.45310129705695085
8,1.6500160871999998,2.750026812000001,2.006347065020045,0.0,0.09696986024225386,4.038461538461539e-12,0.15679804729533364,0.45312268523158333
9,1.6500160871999998,2.750026812000001,2.006347065020044,0.0,0.10634863933214841,4.038461538461539e-12,0.0,0.45312352517477106
10,1.6500160871999998,2.750026812000001,2.006347065020044,0.0,0.11223013417696587,4.038461538461539e-12,0.0,0.45313036066364987
11,0.8250080435999999,1.9250187684000004,2.006347065020044,0.0,0.19822467609471087,4.038461538461539e-12,0.0,0.45312212325683865
12,0.8250080435999999,1.9250187684000004,2.006347065020045,0.0,0.30124882850135554,4.038461538461539e-12,0.0,0.4531014084784138
13,0.8250080435999999,1.9250187684000004,2.006347065020045,0.0,0.31945355058107433,4.038461538461539e-12,0.0,0.02
14,0.8250080435999999,1.9250187684000004,2.006347065020044,0.0,0.30889697883582995,4.038461538461539e-12,0.0,0.4530921792657816
15,0.8250080435999999,1.9250187684000004,2.006347065020044,0.0,0.2927705465396837,4.038461538461539e-12,0.0,0.45302525148962197
16,0.2750026812,1.6500160871999998,2.006347065020044,0.0,0.19668157444765835,4.038461538461539e-12,0.0,0.45309264685500117
17,0.2750026812,1.6500160871999998,0.0,0.0,0.0,4.038461538461539e-12,0.0,0.02
18,0.2750026812,1.6500160871999998,0.0,1.9191666666666667,0.0,4.038461538461539e-12,0.0,0.4530913538227422
19,0.2750026812,1.6500160871999998,0.0,2.303,0.0,4.038461538461539e-12,0.0,0.45307970427871425
20,0.2750026812,1.6500160871999998,0.0,2.303,0.0,4.038461538461539e-12,0.0,0.02
21,0.2750026812,1.6500160871999998,0.0,2.303,0.0,4.038461538461539e-12,0.0,0.4530841797624258
22,0.2750026812,1.6500160871999998,0.0,2.303,0.0,4.038461538461539e-12,0.0,0.4530819279390275
23,0.2750026812,1.6500160871999998,0.0,2.303,0.0,4.038461538461539e-12,0.0,0.02
